﻿id_rga;id_sede;ds_sede
1;2507507;João Pessoa
2;2506301;Guarabira
3;2504009;Campina Grande
4;2505105;Cuité
5;2509701;Monteiro
6;2510808;Patos
7;2507002;Itaporanga
8;2504306;Catolé do Rocha
9;2503704;Cajazeiras
10;2516201;Sousa
11;2512309;Princesa Isabel
12;2506905;Itabaiana
13;2512101;Pombal
14;2508901;Mamanguape